Exploring the Fiscal Characteristics of Major US Public Transit Systems – STA 9750 2024 Submission Material
…
pandemic_ridership_2020 <- USAGE |>
  filter(month >= "2020-01-01" & month <= "2020-12-31") |>
  group_by(Agency) |>
  summarize(upt_2020 = sum(UPT, na.rm = TRUE))

#create a new df to find the ridership difference btwn the two years:

pandemic_ridership_decline <- left_join(pandemic_ridership_2019, pandemic_ridership_2020, by = "Agency") |>
  mutate(ridership_decline = upt_2020 - upt_2019) |>
  arrange(ridership_decline)

print(pandemic_ridership_decline)

# A tibble: 502 × 4
   Agency                                    upt_2019 upt_2020 ridership_decline
   <chr>                                        <dbl>    <dbl>             <dbl>
 1 MTA New York City Transit                   3.46e9   1.54e9       -1924202310
 2 Chicago Transit Authority                   4.56e8   1.97e8        -258243748
 3 Washington Metropolitan Area Transit Aut…   3.63e8   1.28e8        -235044193
 4 Massachusetts Bay Transportation Authori…   3.63e8   1.48e8        -215279246
 5 Southeastern Pennsylvania Transportation…   3.10e8   1.37e8        -173413816
 6 Los Angeles County Metropolitan Transpor…   3.74e8   2.16e8        -158172651
 7 New Jersey Transit Corporation              2.68e8   1.23e8        -144204949
 8 City and County of San Francisco            2.19e8   8.91e7        -130190690
 9 San Francisco Bay Area Rapid Transit Dis…   1.28e8   3.51e7         -92453618
10 MTA Long Island Rail Road                   1.14e8   4.35e7         -70756457
# ℹ 492 more rows
The MTA suffered the most significant decline in ridership, having lost nearly 1.92 billion trips, followed by the Chicago Transit Authority and Washington Metro. There’s a trend we can see here where major cities across the US are hit the hardest with ridership lost during the pandemic. It makes sense in heavily populated cities where citizens typically rely on public transportation daily. Nonetheless, the health crisis has revealed the weaknesses of transit systems during this difficult time.

Ridership Recovery & Preferred Modes of Travel

Despite the sharp declines agencies have faced, these systems have begun to adapt to the new changes brought on since the pandemic in recent years. If we take a look at the top ten metro areas with the highest ridership in 2023, we can clearly see these select transit systems are up and running well:

highest_ridership_2023 <- USAGE |>
  filter(month >= "2023-01-01" & month <= "2023-12-31") |>
  group_by(metro_area) |>
  summarize(upt_2023 = sum(UPT)) |>
  arrange(desc(upt_2023))

print(highest_ridership_2023)

# A tibble: 291 × 2
   metro_area                              upt_2023
   <chr>                                      <dbl>
 1 New York--Jersey City--Newark, NY--NJ 3267734375
 2 Los Angeles--Long Beach--Anaheim, CA   405828291
 3 Chicago, IL--IN                        332200253
 4 Washington--Arlington, DC--VA--MD      298703885
 5 San Francisco--Oakland, CA             268616926
 6 Boston, MA--NH                         244459896
 7 Philadelphia, PA--NJ--DE--MD           208815405
 8 Seattle--Tacoma, WA                    153044584
 9 Miami--Fort Lauderdale, FL             117709423
10 San Diego, CA                           80364849
# ℹ 281 more rows
…
Using the newly created dataframe, USAGE_AND_FINANCIALS, I’ll first determine which transit agency had the highest UPT based on heavy rail and buses in 2022:

most_upt_2022 <- USAGE_AND_FINANCIALS |>
  filter(UPT >= 400000) |>
  group_by(Agency, Mode) |>
  summarize(highest_upt = max(UPT)) |>
  arrange(desc(highest_upt))

print(most_upt_2022)

# A tibble: 146 × 3
# Groups:   Agency [112]
   Agency                                                   Mode     highest_upt
   <chr>                                                    <chr>          <dbl>
 1 MTA New York City Transit                                Heavy R…   171843098
 2 MTA New York City Transit                                Bus         41244091
 3 Los Angeles County Metropolitan Transportation Authority Bus         17344080
 4 Chicago Transit Authority                                Bus         13300536
 5 Chicago Transit Authority                                Heavy R…    10275760
 6 Washington Metropolitan Area Transit Authority           Heavy R…    10242435
 7 New Jersey Transit Corporation                           Bus          9977943
 8 MTA Bus Company                                          Bus          9144229
 9 Washington Metropolitan Area Transit Authority           Bus          8838389
10 Southeastern Pennsylvania Transportation Authority       Bus          8670359
# ℹ 136 more rows

As we previously discussed at length, the MTA New York City Transit continued to lead in UPT, with roughly 172 million trips in heavy rail, followed by 41 million trips in buses. However when we go on to calculate agencies with the highest farebox recovery ratio, calculated as total fares divided by expenses:

highest_fare_recov <- USAGE_AND_FINANCIALS |>
  filter(UPT >= 400000) |>
  mutate(fare_rec_rate = `Total Fares`/Expenses) |>
  group_by(Agency, Mode) |>
  summarize(highest_ratio = max(fare_rec_rate)) |>
  arrange(desc(highest_ratio))

print(highest_fare_recov)

# A tibble: 146 × 3
# Groups:   Agency [112]
   Agency                                                    Mode  highest_ratio
   <chr>                                                     <chr>         <dbl>
 1 Anaheim Transportation Network                            Bus           0.865
 2 City of Gainesville, FL                                   Bus           0.548
 3 MTA New York City Transit                                 Heav…         0.435
 4 Massachusetts Bay Transportation Authority                Heav…         0.375
 5 Woods Hole, Martha's Vineyard and Nantucket Steamship Au… Ferr…         0.335
 6 Metro-North Commuter Railroad Company, dba: MTA Metro-No… Comm…         0.331
 7 Centre Area Transportation Authority                      Bus           0.324
 8 MTA Long Island Rail Road                                 Comm…         0.286
 9 Southeastern Pennsylvania Transportation Authority        Heav…         0.253
10 Regional Transportation Commission of Southern Nevada     Bus           0.252
# ℹ 136 more rows

We see that the Anaheim Transportation Network (ATN) had the highest farebox recovery ratio of 86.5%, meaning most of its bus operating costs are covered by its passenger fares. Contrastingly, the MTA’s heavy rail system was ranked 43.5%, which is nearly half the farebox ratio of ATN. These comparisons don’t stop here; if we take a look at which transit system had the lowest expenses per UPT:

lowest_exp_upt <- USAGE_AND_FINANCIALS |>
  filter(UPT >= 400000) |>
  mutate(exp_per_upt = Expenses/UPT) |>
  group_by(Agency, Mode) |>
  summarize(min_exp_upt = min(exp_per_upt)) |>
  arrange(min_exp_upt)

print(lowest_exp_upt)

# A tibble: 146 × 3
# Groups:   Agency [112]
   Agency                                                     Mode   min_exp_upt
   <chr>                                                      <chr>        <dbl>
 1 Anaheim Transportation Network                             Bus           12.8
 2 University of Georgia                                      Bus           14.9
 3 University of Michigan Parking and Transportation Services Bus           16.2
 4 Town of Blacksburg                                         Bus           17.5
 5 Ames Transit Agency                                        Bus           21.5
 6 Centre Area Transportation Authority                       Bus           23.5
 7 MTA New York City Transit                                  Heavy…        31.1
 8 Greater Lafayette Public Transportation Corporation        Bus           31.5
 9 San Diego Metropolitan Transit System                      Light…        31.6
10 Champaign-Urbana Mass Transit District                     Bus           39.8
# ℹ 136 more rows
…
Operational & Financial Efficiency

Furthering the analysis of public transit’s operational and financial efficiency, we’ll now take a look at the fares and expenses incurred, still keeping our focus on major transit systems that are greater than or equal to 400,000 UPT for the year 2022. When calculating which system had the highest total fares per UPT:

highest_fare_upt <- USAGE_AND_FINANCIALS |>
  filter(UPT >= 400000) |>
  mutate(fare_per_upt = `Total Fares`/UPT) |>
  group_by(Agency, Mode) |>
  summarize(max_fare_upt = max(fare_per_upt, na.rm = TRUE)) |>
  arrange(desc(max_fare_upt))

print(highest_fare_upt)

# A tibble: 146 × 3
# Groups:   Agency [112]
   Agency                                                     Mode  max_fare_upt
   <chr>                                                      <chr>        <dbl>
 1 New Jersey Transit Corporation                             Bus          525. 
 2 Metro-North Commuter Railroad Company, dba: MTA Metro-Nor… Comm…        161. 
 3 Northeast Illinois Regional Commuter Railroad Corporation  Comm…        146. 
 4 New Jersey Transit Corporation                             Comm…        119. 
 5 MTA New York City Transit                                  Comm…        112. 
 6 Massachusetts Bay Transportation Authority                 Bus          106. 
 7 Massachusetts Bay Transportation Authority                 Comm…         84.4
 8 Woods Hole, Martha's Vineyard and Nantucket Steamship Aut… Ferr…         78.0
 9 MTA Long Island Rail Road                                  Comm…         73.9
10 Peninsula Corridor Joint Powers Board                      Comm…         67.5
# ℹ 136 more rows

We found that the New Jersey Transit Corporation for buses had the highest fares of $525 per UPT. Following this is the MTA’s Metro-North Railroad’s commuter bus, costing $161 per UPT, and further down is the MTA NYC’s transit commuter bus costing $112 per UPT. These findings may be due to a number of possible suggestions, such as the type of commuters being served. For example, it’s possible that certain systems serve higher-income commuters which allows systems to charge higher prices and as a result generate more revenue, even if its overall ridership is lower when compared to other agencies.

Another important question to consider is which transit system had the lowest expenses per VRM in order to find out which agency provides the best cost-effective services based on miles traveled:

lowest_exp_vrm <- USAGE_AND_FINANCIALS |>
  filter(UPT >= 400000) |>
  mutate(exp_per_vrm = Expenses/VRM) |>
  group_by(Agency, Mode) |>
  summarize(min_exp_vrm = min(exp_per_vrm, na.rm = TRUE)) |>
  arrange(min_exp_vrm)

print(lowest_exp_vrm)

# A tibble: 146 × 3
# Groups:   Agency [112]
   Agency                                              Mode       min_exp_vrm
   <chr>                                               <chr>            <dbl>
 1 Interurban Transit Partnership                      Bus               77.2
 2 City of El Paso                                     Bus               85.8
 3 Des Moines Area Regional Transit Authority          Bus               86.3
 4 Central Florida Regional Transportation Authority   Bus               87.5
 5 San Francisco Bay Area Rapid Transit District       Heavy Rail        88.8
 6 Transportation District Commission of Hampton Roads Bus               88.9
 7 City of Gainesville, FL                             Bus               90.1
 8 Greater Lafayette Public Transportation Corporation Bus               90.5
 9 Ames Transit Agency                                 Bus               92.0
10 Delaware Transit Corporation                        Bus               92.4
# ℹ 136 more rows

The Interurban Transit Partnership was found to have the lowest expenses per VRM at $77.20, followed by City of El Paso and Des Moines Area Regional Transit Authority, all of which are bus transportation. It’s important to consider not only the mode, since certain vehicles are more costly than others to run, but also the demand for public transit as we’ve discussed earlier. Depending on the size of transit systems and service provided, it likely affects the agency’s ability to operate efficiently on a per-mile basis.

To further assess transit systems’ revenue efficiency, we should also consider the highest total fares per VRM:

highest_fare_vrm <- USAGE_AND_FINANCIALS |>
  filter(UPT >= 400000) |>
  mutate(fare_per_vrm = `Total Fares`/VRM) |>
  group_by(Agency, Mode) |>
  summarize(max_fare_vrm = max(fare_per_vrm, na.rm = TRUE)) |>
  arrange(desc(max_fare_vrm))

print(highest_fare_vrm)

# A tibble: 146 × 3
# Groups:   Agency [112]
   Agency                                                     Mode  max_fare_vrm
   <chr>                                                      <chr>        <dbl>
 1 Washington State Ferries                                   Ferr…       1120. 
 2 Woods Hole, Martha's Vineyard and Nantucket Steamship Aut… Ferr…        829. 
 3 New York City Economic Development Corporation             Ferr…        188. 
 4 Anaheim Transportation Network                             Bus          170. 
 5 Massachusetts Bay Transportation Authority                 Ligh…        131. 
 6 Port Authority Trans-Hudson Corporation                    Heav…        119. 
 7 Massachusetts Bay Transportation Authority                 Heav…        101. 
 8 MTA Long Island Rail Road                                  Comm…         98.6
 9 Metro-North Commuter Railroad Company, dba: MTA Metro-Nor… Comm…         94.4
10 MTA New York City Transit                                  Heav…         91.5
# ℹ 136 more rows
…
